computer 2015-11-26 527  86
computer 2015-11-26 528  78
computer 2015-11-26 529  61
computer 2015-11-26 530  50
computer 2015-11-26 531  53
computer 2015-11-26 532  61
computer 2015-11-26 533  60
computer 2015-11-26 534  50
computer 2015-11-26 535  91
computer 2015-11-26 536  99
computer 2015-11-26 537  75
computer 2015-11-26 538  105
computer 2015-11-26 539  67
computer 2015-11-26 540  63
computer 2015-11-26 541  69
computer 2015-11-26 542  87
computer 2015-11-26 543  110
computer 2015-11-26 544  55
computer 2015-11-26 545  52
computer 2015-11-26 546  55
computer 2015-11-26 547  91
computer 2015-11-26 548  71
computer 2015-11-26 549  3
student 2015-11-26 527  36
student 2015-11-26 528  39
student 2015-11-26 529  33
student 2015-11-26 530  28
student 2015-11-26 531  24
student 2015-11-26 532  44
student 2015-11-26 533  51
student 2015-11-26 534  42
student 2015-11-26 535  58
student 2015-11-26 536  42
student 2015-11-26 537  46
student 2015-11-26 538  50
student 2015-11-26 539  60
student 2015-11-26 540  155
student 2015-11-26 541  43
student 2015-11-26 542  74
student 2015-11-26 543  66
student 2015-11-26 544  55
student 2015-11-26 545  32
student 2015-11-26 546  38
student 2015-11-26 547  42
student 2015-11-26 548  48
student 2015-11-26 549  7
university 2015-11-26 527  18
university 2015-11-26 528  46
university 2015-11-26 529  31
university 2015-11-26 530  22
university 2015-11-26 531  33
university 2015-11-26 532  111
university 2015-11-26 533  33
university 2015-11-26 534  31
university 2015-11-26 535  50
university 2015-11-26 536  27
university 2015-11-26 537  30
university 2015-11-26 538  39
university 2015-11-26 539  44
university 2015-11-26 540  105
university 2015-11-26 541  62
university 2015-11-26 542  67
university 2015-11-26 543  59
university 2015-11-26 544  48
university 2015-11-26 545  68
university 2015-11-26 546  69
university 2015-11-26 547  50
university 2015-11-26 548  34
university 2015-11-26 549  3
raspberry 2015-11-26 527  47
raspberry 2015-11-26 528  40
raspberry 2015-11-26 529  33
raspberry 2015-11-26 530  16
raspberry 2015-11-26 531  19
raspberry 2015-11-26 532  33
raspberry 2015-11-26 533  35
raspberry 2015-11-26 534  29
raspberry 2015-11-26 535  58
raspberry 2015-11-26 536  120
raspberry 2015-11-26 537  57
raspberry 2015-11-26 538  60
raspberry 2015-11-26 539  28
raspberry 2015-11-26 540  29
raspberry 2015-11-26 541  34
raspberry 2015-11-26 542  42
raspberry 2015-11-26 543  105
raspberry 2015-11-26 544  46
raspberry 2015-11-26 545  27
raspberry 2015-11-26 546  42
raspberry 2015-11-26 547  53
raspberry 2015-11-26 548  46
raspberry 2015-11-26 549  1
science 2015-11-26 527  23
science 2015-11-26 528  31
science 2015-11-26 529  45
science 2015-11-26 530  19
science 2015-11-26 531  19
science 2015-11-26 532  30
science 2015-11-26 533  39
science 2015-11-26 534  50
science 2015-11-26 535  51
science 2015-11-26 536  36
science 2015-11-26 537  44
science 2015-11-26 538  39
science 2015-11-26 539  43
science 2015-11-26 540  61
science 2015-11-26 541  56
science 2015-11-26 542  30
science 2015-11-26 543  32
science 2015-11-26 544  42
science 2015-11-26 545  47
science 2015-11-26 546  20
science 2015-11-26 547  31
science 2015-11-26 548  25
science 2015-11-26 549  1
